{
	"info": {
		"_postman_id": "6730f5d6-987f-42c2-a76e-6eb4a59ce698",
		"name": "Library",
		"schema": "https://schema.getpostman.com/json/collection/v2.1.0/collection.json"
	},
	"item": [
		{
			"name": "Get User",
			"protocolProfileBehavior": {
				"disableBodyPruning": true
			},
			"request": {
				"method": "GET",
				"header": [
					{
						"key": "Content-Type",
						"type": "text",
						"value": "application/x-www-form-urlencoded",
						"disabled": true
					}
				],
				"body": {
					"mode": "raw",
					"raw": ""
				},
				"url": {
					"raw": "http://{{domain}}/api/users/1",
					"protocol": "http",
					"host": [
						"{{domain}}"
					],
					"path": [
						"api",
						"users",
						"1"
					]
				}
			},
			"response": []
		},
		{
			"name": "Get All Users",
			"protocolProfileBehavior": {
				"disableBodyPruning": true
			},
			"request": {
				"method": "GET",
				"header": [
					{
						"key": "Content-Type",
						"value": "application/x-www-form-urlencoded",
						"type": "text",
						"disabled": true
					}
				],
				"body": {
					"mode": "raw",
					"raw": ""
				},
				"url": {
					"raw": "http://{{domain}}/api/users/",
					"protocol": "http",
					"host": [
						"{{domain}}"
					],
					"path": [
						"api",
						"users",
						""
					]
				}
			},
			"response": []
		},
		{
			"name": "Get All Books",
			"protocolProfileBehavior": {
				"disableBodyPruning": true
			},
			"request": {
				"method": "GET",
				"header": [
					{
						"key": "Content-Type",
						"type": "text",
						"value": "application/x-www-form-urlencoded",
						"disabled": true
					}
				],
				"body": {
					"mode": "raw",
					"raw": ""
				},
				"url": {
					"raw": "http://{{domain}}/api/books/",
					"protocol": "http",
					"host": [
						"{{domain}}"
					],
					"path": [
						"api",
						"books",
						""
					]
				}
			},
			"response": []
		},
		{
			"name": "Get All Rentals",
			"protocolProfileBehavior": {
				"disableBodyPruning": true
			},
			"request": {
				"method": "GET",
				"header": [
					{
						"key": "Content-Type",
						"type": "text",
						"value": "application/x-www-form-urlencoded",
						"disabled": true
					}
				],
				"body": {
					"mode": "raw",
					"raw": ""
				},
				"url": {
					"raw": "http://{{domain}}/api/books/",
					"protocol": "http",
					"host": [
						"{{domain}}"
					],
					"path": [
						"api",
						"books",
						""
					]
				}
			},
			"response": []
		},
		{
			"name": "Create User",
			"request": {
				"method": "POST",
				"header": [
					{
						"key": "Content-Type",
						"name": "Content-Type",
						"value": "application/x-www-form-urlencoded",
						"type": "text"
					}
				],
				"body": {
					"mode": "urlencoded",
					"urlencoded": [
						{
							"key": "firstname",
							"value": "muci",
							"type": "text"
						},
						{
							"key": "lastname",
							"value": "buci",
							"type": "text"
						}
					],
					"options": {
						"raw": {
							"language": "json"
						}
					}
				},
				"url": {
					"raw": "http://{{domain}}/api/users/create",
					"protocol": "http",
					"host": [
						"{{domain}}"
					],
					"path": [
						"api",
						"users",
						"create"
					]
				}
			},
			"response": []
		},
		{
			"name": "Rent A Book",
			"request": {
				"method": "POST",
				"header": [
					{
						"key": "Content-Type",
						"name": "Content-Type",
						"type": "text",
						"value": "application/x-www-form-urlencoded"
					}
				],
				"body": {
					"mode": "urlencoded",
					"urlencoded": [
						{
							"key": "user",
							"value": "1",
							"type": "text"
						},
						{
							"key": "book",
							"value": "2",
							"type": "text"
						}
					],
					"options": {
						"raw": {
							"language": "json"
						}
					}
				},
				"url": {
					"raw": "http://{{domain}}/api/rentals/rent",
					"protocol": "http",
					"host": [
						"{{domain}}"
					],
					"path": [
						"api",
						"rentals",
						"rent"
					]
				}
			},
			"response": []
		},
		{
			"name": "Return A Book",
			"request": {
				"method": "POST",
				"header": [
					{
						"key": "Content-Type",
						"name": "Content-Type",
						"type": "text",
						"value": "application/x-www-form-urlencoded"
					}
				],
				"body": {
					"mode": "urlencoded",
					"urlencoded": [
						{
							"key": "user",
							"value": "1",
							"type": "text"
						},
						{
							"key": "book",
							"value": "1",
							"type": "text"
						}
					],
					"options": {
						"raw": {
							"language": "json"
						}
					}
				},
				"url": {
					"raw": "http://{{domain}}/api/rentals/return",
					"protocol": "http",
					"host": [
						"{{domain}}"
					],
					"path": [
						"api",
						"rentals",
						"return"
					]
				}
			},
			"response": []
		}
	],
	"protocolProfileBehavior": {}
}